3033629 | 24146 | "ndish" updated from old "Dishes" | bierock | bierock
3033645 | 24165 | "ndish" updated from old "Dishes" | carne-adovada | carne-adovada
3033657 | 24102 | "ndish" updated from old "Dishes" | chicken-dinner | chicken-dinner
3033674 | 24226 | "ndish" updated from old "Dishes" | corned-beef-hash | corned-beef-hash
3033708 | 24177 | "ndish" updated from old "Dishes" | goetta | goetta
3033725 | 24091 | "ndish" updated from old "Dishes" | horseshoe | horseshoe
3033726 | 24107 | "ndish" updated from old "Dishes" | hot-brown | hot-brown
3033751 | 24216 | "ndish" updated from old "Dishes" | meat-and-three | meat-and-three
3033755 | 24186 | "ndish" updated from old "Dishes" | migas | migas
3033766 | 24126 | "ndish" updated from old "Dishes" | pasty | pasty
3033774 | 24041 | "ndish" updated from old "Dishes" | pico-de-gallo | pico-de-gallo
3033787 | 24196 | "ndish" updated from old "Dishes" | poutine | poutine
3033803 | 24140 | "ndish" updated from old "Dishes" | slinger | slinger
3033841 | 24220 | "ndish" updated from old "Dishes" | frito-pie | frito-pie
3033854 | 24062 | "ndish" updated from old "Dishes" | white-clam-pizza | white-clam-pizza
3033859 | 24240 | "ndish" updated from old "Dishes" | dixie-dog | dixie-dog
3033869 | 24243 | "ndish" updated from old "Dishes" | butter-burger | butter-burger
3033873 | 24206 | "ndish" updated from old "Dishes" | pimento-cheeseburger | pimento-cheeseburger
3033871 | 24164 | "ndish" updated from old "Dishes" | green-chile-cheeseburger | green-chile-cheeseburger
3033875 | 24063 | "ndish" updated from old "Dishes" | steamed-cheeseburger | steamed-cheeseburger
3033914 | 24205 | "ndish" updated from old "Dishes" | shrimp-and-grits | shrimp-and-grits
3033923 | 24210 | "ndish" updated from old "Dishes" | bumbleberry-pie | bumbleberry-pie
3033925 | 24127 | "ndish" updated from old "Dishes" | cherry-pie | cherry-pie
3033931 | 24046 | "ndish" updated from old "Dishes" | fried-pie | fried-pie
3033942 | 24132 | "ndish" updated from old "Dishes" | sour-cream-raisin-pie | sour-cream-raisin-pie
3033950 | 24110 | "ndish" updated from old "Dishes" | meat-pie | meat-pie
3033968 | 24103 | "ndish" updated from old "Dishes" | burnt-ends | burnt-ends
3033976 | 24035 | "ndish" updated from old "Dishes" | banana-pudding | banana-pudding
3033982 | 24245 | "ndish" updated from old "Dishes" | custard | custard
3033984 | 24116 | "ndish" updated from old "Dishes" | indian-pudding | indian-pudding
3033991 | 24054 | "ndish" updated from old "Dishes" | date-shake | date-shake
3033994 | 24155 | "ndish" updated from old "Dishes" | grape-nuts-ice-cream | grape-nuts-ice-cream
3034021 | 24237 | "ndish" updated from old "Dishes" | latte | latte
3034077 | 24083 | "ndish" updated from old "Dishes" | malasada | malasada
3034085 | 24239 | "ndish" updated from old "Dishes" | pepperoni-roll | pepperoni-roll
3034104 | 24231 | "ndish" updated from old "Dishes" | sweet-potato-biscuit | sweet-potato-biscuit
3034111 | 24168 | "ndish" updated from old "Dishes" | beef-on-weck | beef-on-weck
3034122 | 24073 | "ndish" updated from old "Dishes" | cuban-sandwich | cuban-sandwich
3034127 | 24241 | "ndish" updated from old "Dishes" | fish-sandwich | fish-sandwich
3034148 | 24123 | "ndish" updated from old "Dishes" | roast-beef-sandwich | roast-beef-sandwich
3034191 | 24139 | "ndish" updated from old "Dishes" | gooey-butter-cake | gooey-butter-cake
3034215 | 24111 | "ndish" updated from old "Dishes" | boudin | boudin
3034219 | 24215 | "ndish" updated from old "Dishes" | country-ham | country-ham
3034231 | 24067 | "ndish" updated from old "Dishes" | scrapple | scrapple
3034257 | 24118 | "ndish" updated from old "Dishes" | crab-cake | crab-cake
3034261 | 24052 | "ndish" updated from old "Dishes" | fish-tacos | fish-tacos
3034263 | 24122 | "ndish" updated from old "Dishes" | fried-clams | fried-clams
3034267 | 24114 | "ndish" updated from old "Dishes" | lobster-roll | lobster-roll
3034273 | 24057 | "ndish" updated from old "Dishes" | rocky-mountain-oysters | rocky-mountain-oysters
3034307 | 24189 | "ndish" updated from old "Dishes" | chowder | chowder
3034312 | 24112 | "ndish" updated from old "Dishes" | gumbo | gumbo
3034324 | 24151 | "ndish" updated from old "Dishes" | chicken-fried-steak | chicken-fried-steak
3034330 | 24247 | "ndish" updated from old "Dishes" | prime-rib | prime-rib
3034354 | 24202 | "ndish" updated from old "Dishes" | snail-salad | snail-salad